(module DS1233-5+ (layer F.Cu)
  (fp_text reference REF** (at -2.54 0) (layer F.SilkS)
    (effects (font (size 1 1) (thickness .15)))
  )
  (fp_text value 21-0248A (at -2.54 0) (layer F.SilkS)
    (effects (font (size 1 1) (thickness .15)))
  )
  (fp_text user "Copyright 2016 Accelerated Designs. All rights reserved." (at 0 0) (layer Cmts.User)
    (effects (font (size .127 .127) (thickness .002)))
  )
  (fp_text user "*" (at 0 0) (layer F.SilkS)
    (effects (font (size 1 1) (thickness .15)))
  )
  (fp_text user "*" (at 0 0) (layer F.Fab)
    (effects (font (size 1 1) (thickness .15)))
  )
  (fp_line (start -5.334 0) (end -4.826 0) (layer F.Fab) (width .1524))
  (fp_line (start -5.08 .254) (end -5.08 -.254) (layer F.Fab) (width .1524))
  (fp_line (start -4.539998 1.4605) (end -.540002 1.4605) (layer F.Fab) (width .1524))
  (fp_line (start -4.539998 1.5875) (end -.540002 1.5875) (layer F.SilkS) (width .1524))
  (fp_line (start -5.969 1.7145) (end -5.969 -3.429) (layer F.CrtYd) (width .1524))
  (fp_line (start -5.969 -3.429) (end .889 -3.429) (layer F.CrtYd) (width .1524))
  (fp_line (start .889 -3.429) (end .889 1.7145) (layer F.CrtYd) (width .1524))
  (fp_line (start .889 1.7145) (end -5.969 1.7145) (layer F.CrtYd) (width .1524))
  (fp_arc (start -2.54 0) (end -2.54 2.4765) (angle 252.277603)(layer F.Fab) (width .1524))
  (fp_arc (start -2.54 0) (end -2.54 2.6035) (angle 14.31784)(layer F.SilkS) (width .1524))
  (fp_arc (start -2.54 0) (end -2.54 2.6035) (angle 136.358093)(layer F.SilkS) (width .1524))
  (fp_arc (start -2.54 0) (end -2.54 2.6035) (angle 14.31788)(layer F.SilkS) (width .1524))
  (fp_circle (center -4.7625 0) (end -4.6355 0) (layer F.Fab) (width .1524))
  (fp_circle (center -6.9215 0) (end -6.7945 0) (layer F.SilkS) (width .1524))
  (pad 1 thru_hole rect (at -5.08 0) (size 1.27 1.27) (drill .762) (layers *.Cu *.Mask))
  (pad 2 thru_hole rect (at -2.54 0) (size 1.27 1.27) (drill .762) (layers *.Cu *.Mask))
  (pad 3 thru_hole rect (at 0 0) (size 1.27 1.27) (drill .762) (layers *.Cu *.Mask))
)
